%YAML 1.1
%TAG !u! tag:unity3d.com,2011:
--- !u!114 &11400000
MonoBehaviour:
  m_ObjectHideFlags: 0
  m_CorrespondingSourceObject: {fileID: 0}
  m_PrefabInstance: {fileID: 0}
  m_PrefabAsset: {fileID: 0}
  m_GameObject: {fileID: 0}
  m_Enabled: 1
  m_EditorHideFlags: 0
  m_Script: {fileID: 11500000, guid: 959631b8bb1e3d54aa3f8d58fd0d28df, type: 3}
  m_Name: GameEventData 13
  m_EditorClassIdentifier: 
  completed: 1
  decision: 0
  gameSide: {fileID: 1731475348464857768, guid: a0a8a8468c742c144bd66d8a13dec395,
    type: 3}
  startEventText: We need to trade with the next town. Send a caravan of angels and
    demons there. We can get profitable cooperation!
  positiveEventText: "The main product was tarantulas. It didn't work out very well\u2026"
  negativeEventText: You've just interrupted a possible slave-holding business. Well
    done!
  positiveAngel: -8
  positiveDemon: 14
  positiveNeutral: -14
  positivePlayer: 8
  negativeAngel: -8
  negativeDemon: -14
  negativeNeutral: 14
  negativePlayer: 8
