%YAML 1.1
%TAG !u! tag:unity3d.com,2011:
--- !u!114 &11400000
MonoBehaviour:
  m_ObjectHideFlags: 0
  m_CorrespondingSourceObject: {fileID: 0}
  m_PrefabInstance: {fileID: 0}
  m_PrefabAsset: {fileID: 0}
  m_GameObject: {fileID: 0}
  m_Enabled: 1
  m_EditorHideFlags: 0
  m_Script: {fileID: 11500000, guid: 959631b8bb1e3d54aa3f8d58fd0d28df, type: 3}
  m_Name: GameEventData 2
  m_EditorClassIdentifier: 
  completed: 1
  decision: 0
  gameSide: {fileID: 1731475348464857768, guid: a0a8a8468c742c144bd66d8a13dec395,
    type: 3}
  startEventText: Let's have a little war! It's boring to live like this!
  positiveEventText: Warrior has always been your favorite, but it hasn't made much
    difference
  negativeEventText: Your influence has increased, but at what cost?
  positiveAngel: 3
  positiveDemon: -2
  positiveNeutral: -2
  positivePlayer: 2
  negativeAngel: -7
  negativeDemon: -3
  negativeNeutral: 4
  negativePlayer: 6
