%YAML 1.1
%TAG !u! tag:unity3d.com,2011:
--- !u!114 &11400000
MonoBehaviour:
  m_ObjectHideFlags: 0
  m_CorrespondingSourceObject: {fileID: 0}
  m_PrefabInstance: {fileID: 0}
  m_PrefabAsset: {fileID: 0}
  m_GameObject: {fileID: 0}
  m_Enabled: 1
  m_EditorHideFlags: 0
  m_Script: {fileID: 11500000, guid: 959631b8bb1e3d54aa3f8d58fd0d28df, type: 3}
  m_Name: GameEventData 13
  m_EditorClassIdentifier: 
  completed: 1
  decision: 0
  gameSide: {fileID: 5947298434991866748, guid: c3c8b7478b1c87444ac202ad43d91754,
    type: 3}
  startEventText: We are ready to give you 10 books of our sacred library. Only please
    keep them intact!
  positiveEventText: Scriptures? Give me 20! And I don't care what demons don't like
    about it!
  negativeEventText: Nooo... I haven't finished reading the Bible of Satan yet. Please
    come back later.
  positiveAngel: -13
  positiveDemon: -10
  positiveNeutral: -6
  positivePlayer: 3
  negativeAngel: 13
  negativeDemon: 10
  negativeNeutral: 6
  negativePlayer: 3
