%YAML 1.1
%TAG !u! tag:unity3d.com,2011:
--- !u!114 &11400000
MonoBehaviour:
  m_ObjectHideFlags: 0
  m_CorrespondingSourceObject: {fileID: 0}
  m_PrefabInstance: {fileID: 0}
  m_PrefabAsset: {fileID: 0}
  m_GameObject: {fileID: 0}
  m_Enabled: 1
  m_EditorHideFlags: 0
  m_Script: {fileID: 11500000, guid: 959631b8bb1e3d54aa3f8d58fd0d28df, type: 3}
  m_Name: GameEventData 6
  m_EditorClassIdentifier: 
  completed: 1
  decision: 1
  gameSide: {fileID: 5947298434991866748, guid: c3c8b7478b1c87444ac202ad43d91754,
    type: 3}
  startEventText: One of our people decided to marry a demon. You can't allow such
    blasphemy!
  positiveEventText: 'Of course it is! '
  negativeEventText: Oh, come on, man! Let me go for a walk at one wedding!
  positiveAngel: 2
  positiveDemon: -8
  positiveNeutral: 4
  positivePlayer: 2
  negativeAngel: -8
  negativeDemon: 6
  negativeNeutral: 1
  negativePlayer: 1
