%YAML 1.1
%TAG !u! tag:unity3d.com,2011:
--- !u!114 &11400000
MonoBehaviour:
  m_ObjectHideFlags: 0
  m_CorrespondingSourceObject: {fileID: 0}
  m_PrefabInstance: {fileID: 0}
  m_PrefabAsset: {fileID: 0}
  m_GameObject: {fileID: 0}
  m_Enabled: 1
  m_EditorHideFlags: 0
  m_Script: {fileID: 11500000, guid: 959631b8bb1e3d54aa3f8d58fd0d28df, type: 3}
  m_Name: GameEventData 7
  m_EditorClassIdentifier: 
  completed: 1
  decision: 0
  gameSide: {fileID: 2043871431817983290, guid: d7862703f672e5a48a335d663a4e6d78,
    type: 3}
  startEventText: The lawsuit about the attack on us was too long. Take action!
  positiveEventText: You're letting yourself be distracted by nothing.
  negativeEventText: The bird people have been getting too cocky lately.
  positiveAngel: 0
  positiveDemon: -4
  positiveNeutral: 8
  positivePlayer: -4
  negativeAngel: 0
  negativeDemon: 4
  negativeNeutral: -8
  negativePlayer: 4
