%YAML 1.1
%TAG !u! tag:unity3d.com,2011:
--- !u!114 &11400000
MonoBehaviour:
  m_ObjectHideFlags: 0
  m_CorrespondingSourceObject: {fileID: 0}
  m_PrefabInstance: {fileID: 0}
  m_PrefabAsset: {fileID: 0}
  m_GameObject: {fileID: 0}
  m_Enabled: 1
  m_EditorHideFlags: 0
  m_Script: {fileID: 11500000, guid: 959631b8bb1e3d54aa3f8d58fd0d28df, type: 3}
  m_Name: GameEventData 1
  m_EditorClassIdentifier: 
  completed: 1
  decision: 0
  gameSide: {fileID: 2043871431817983290, guid: d7862703f672e5a48a335d663a4e6d78,
    type: 3}
  startEventText: My lord, a thunderstorm is coming! We need a law that obliges angels
    to hide us from the rage of nature!
  positiveEventText: The angels were reluctant to agree to this decree.
  negativeEventText: Maybe you shouldn't be doing this for nothing.
  positiveAngel: -4
  positiveDemon: -2
  positiveNeutral: 6
  positivePlayer: 0
  negativeAngel: 4
  negativeDemon: 2
  negativeNeutral: -6
  negativePlayer: 0
