%YAML 1.1
%TAG !u! tag:unity3d.com,2011:
--- !u!114 &11400000
MonoBehaviour:
  m_ObjectHideFlags: 0
  m_CorrespondingSourceObject: {fileID: 0}
  m_PrefabInstance: {fileID: 0}
  m_PrefabAsset: {fileID: 0}
  m_GameObject: {fileID: 0}
  m_Enabled: 1
  m_EditorHideFlags: 0
  m_Script: {fileID: 11500000, guid: 959631b8bb1e3d54aa3f8d58fd0d28df, type: 3}
  m_Name: GameEventData 11
  m_EditorClassIdentifier: 
  completed: 1
  decision: 1
  gameSide: {fileID: 7788670331418060125, guid: e7fd4a990ceabec4ab4dc52c7ea02b1d,
    type: 3}
  startEventText: Need more gold!
  positiveEventText: Excellent reference to warcraft
  negativeEventText: Come on, what's wrong with this law?
  positiveAngel: -5
  positiveDemon: -5
  positiveNeutral: -1
  positivePlayer: 11
  negativeAngel: 5
  negativeDemon: 5
  negativeNeutral: 1
  negativePlayer: -11
